{
	"_type": "export",
	"__export_format": 3,
	"__export_date": "2018-01-27T22:30:14.655Z",
	"__export_source": "insomnia.desktop.app:v5.12.4",
	"resources": [
		{
			"_id": "wrk_d08770af896540f99ffbe9b82cb95cf9",
			"created": 1517065169607,
			"description": "",
			"modified": 1517065169607,
			"name": "ChatClient",
			"parentId": null,
			"_type": "workspace"
		},
		{
			"_id": "env_1605606b7cf5464b96bf80ff6b8030d1",
			"color": null,
			"created": 1517065169715,
			"data": {
				"baseURL": "http://carfam.freeboxos.fr:8080"
			},
			"isPrivate": false,
			"modified": 1517089396512,
			"name": "New Environment",
			"parentId": "wrk_d08770af896540f99ffbe9b82cb95cf9",
			"_type": "environment"
		},
		{
			"_id": "jar_a3e1ac51533d49e099be8e83558ae8f1",
			"cookies": [],
			"created": 1517065169763,
			"modified": 1517065169763,
			"name": "Default Jar",
			"parentId": "wrk_d08770af896540f99ffbe9b82cb95cf9",
			"_type": "cookie_jar"
		},
		{
			"_id": "req_aeacf945ca8843d4957ed9e384054316",
			"authentication": {},
			"body": {},
			"created": 1517066228500,
			"description": "",
			"headers": [],
			"metaSortKey": -1517066228518,
			"method": "GET",
			"modified": 1517066264231,
			"name": "Informations",
			"parameters": [],
			"parentId": "wrk_d08770af896540f99ffbe9b82cb95cf9",
			"settingDisableRenderRequestBody": false,
			"settingEncodeUrl": true,
			"settingSendCookies": true,
			"settingStoreCookies": true,
			"url": "{{ baseURL  }}/information",
			"_type": "request"
		},
		{
			"_id": "req_d825583835fa4e029548c972db1d79fe",
			"authentication": {},
			"body": {},
			"created": 1517089477323,
			"description": "Return the conversation of the current user",
			"headers": [
				{
					"id": "pair_7c9e7ef08e2348cd8fb55fffc62661cf",
					"name": "x-token",
					"value": "{{ token  }}"
				},
				{
					"id": "pair_5b53be55d67744978d748631c4acd035",
					"name": "x-username",
					"value": "{{ username  }}"
				}
			],
			"metaSortKey": -1517089477404,
			"method": "GET",
			"modified": 1517090099238,
			"name": "getConversation",
			"parameters": [],
			"parentId": "wrk_d08770af896540f99ffbe9b82cb95cf9",
			"settingDisableRenderRequestBody": false,
			"settingEncodeUrl": true,
			"settingSendCookies": true,
			"settingStoreCookies": true,
			"url": "{{ baseURL  }}/Conversation/getConversations",
			"_type": "request"
		},
		{
			"_id": "req_b4f27ca14bf14b0497d3e8da355bae90",
			"authentication": {},
			"body": {
				"mimeType": "application/json",
				"text": "{\n\t\"convID\":{{ convID  }}\n}"
			},
			"created": 1517089677245,
			"description": "Return the name of a given conversation knowing its *convID*\n\n\n## TODO\n\nThink if this method should :\n- return link to conv image\n- latest message\n- participant users\nall in a JSON file and not in raw\n",
			"headers": [
				{
					"id": "pair_7c9e7ef08e2348cd8fb55fffc62661cf",
					"name": "x-token",
					"value": "{{ token  }}"
				},
				{
					"id": "pair_5b53be55d67744978d748631c4acd035",
					"name": "x-username",
					"value": "{{ username  }}"
				},
				{
					"id": "pair_3c7413f6a78b4ef28dc71d0bfc2443ec",
					"name": "Content-Type",
					"value": "application/json"
				}
			],
			"metaSortKey": -1517077852961,
			"method": "GET",
			"modified": 1517090068635,
			"name": "getConversationName",
			"parameters": [],
			"parentId": "wrk_d08770af896540f99ffbe9b82cb95cf9",
			"settingDisableRenderRequestBody": false,
			"settingEncodeUrl": true,
			"settingSendCookies": true,
			"settingStoreCookies": true,
			"url": "{{ baseURL  }}/Conversation/getConversationName",
			"_type": "request"
		},
		{
			"_id": "req_40154b789a0a4eeda2ecc0b971f297cf",
			"authentication": {},
			"body": {
				"mimeType": "application/json",
				"text": "{\n\t\"convID\":{{ convID  }},\n\t\"convName\":\"Tartiflette\"\n}"
			},
			"created": 1517090138602,
			"description": "set the conversationName of a given conversation\n\n# TODO\nReplace this method by a new fuction to place it in conversation modifier\n",
			"headers": [
				{
					"id": "pair_7c9e7ef08e2348cd8fb55fffc62661cf",
					"name": "x-token",
					"value": "{{ token  }}"
				},
				{
					"id": "pair_5b53be55d67744978d748631c4acd035",
					"name": "x-username",
					"value": "{{ username  }}"
				},
				{
					"id": "pair_3c7413f6a78b4ef28dc71d0bfc2443ec",
					"name": "Content-Type",
					"value": "application/json"
				}
			],
			"metaSortKey": -1517072040739.5,
			"method": "GET",
			"modified": 1517090280049,
			"name": "setConversationName",
			"parameters": [],
			"parentId": "wrk_d08770af896540f99ffbe9b82cb95cf9",
			"settingDisableRenderRequestBody": false,
			"settingEncodeUrl": true,
			"settingSendCookies": true,
			"settingStoreCookies": true,
			"url": "{{ baseURL  }}/Conversation/setConversationName",
			"_type": "request"
		},
		{
			"_id": "req_4b0f8b89c46044829bf765fcb3c0f282",
			"authentication": {},
			"body": {
				"mimeType": "application/json",
				"text": "{\n\t\"convID\":{{ convID  }},\n\t\"fileName\":\"{{ imageName  }}\"\n}"
			},
			"created": 1517090391230,
			"description": "set the conversationName of a given conversation\n\n# TODO\nReplace this method by a new fuction to place it in conversation modifier\n",
			"headers": [
				{
					"id": "pair_7c9e7ef08e2348cd8fb55fffc62661cf",
					"name": "x-token",
					"value": "{{ token  }}"
				},
				{
					"id": "pair_5b53be55d67744978d748631c4acd035",
					"name": "x-username",
					"value": "{{ username  }}"
				},
				{
					"id": "pair_3c7413f6a78b4ef28dc71d0bfc2443ec",
					"name": "Content-Type",
					"value": "application/json"
				}
			],
			"metaSortKey": -1517069134628.75,
			"method": "GET",
			"modified": 1517091895170,
			"name": "getConversationImage",
			"parameters": [],
			"parentId": "wrk_d08770af896540f99ffbe9b82cb95cf9",
			"settingDisableRenderRequestBody": false,
			"settingEncodeUrl": true,
			"settingSendCookies": true,
			"settingStoreCookies": true,
			"url": "{{ baseURL  }}/Conversation/getPicture",
			"_type": "request"
		},
		{
			"_id": "req_53123280258e42518ef9bfa9baf2c892",
			"authentication": {},
			"body": {
				"mimeType": "application/json",
				"text": "{\n\t\"convID\":{{ convID  }}\n}"
			},
			"created": 1517090395141,
			"description": "set the conversationName of a given conversation\n\n# TODO\nReplace this method by a new fuction to place it in conversation modifier\n",
			"headers": [
				{
					"id": "pair_7c9e7ef08e2348cd8fb55fffc62661cf",
					"name": "x-token",
					"value": "{{ token  }}"
				},
				{
					"id": "pair_5b53be55d67744978d748631c4acd035",
					"name": "x-username",
					"value": "{{ username  }}"
				},
				{
					"id": "pair_3c7413f6a78b4ef28dc71d0bfc2443ec",
					"name": "Content-Type",
					"value": "application/json"
				}
			],
			"metaSortKey": -1517070587684.125,
			"method": "GET",
			"modified": 1517090599441,
			"name": "getConversation",
			"parameters": [],
			"parentId": "wrk_d08770af896540f99ffbe9b82cb95cf9",
			"settingDisableRenderRequestBody": false,
			"settingEncodeUrl": true,
			"settingSendCookies": true,
			"settingStoreCookies": true,
			"url": "{{ baseURL  }}/Conversation/getConversation",
			"_type": "request"
		},
		{
			"_id": "req_40d7cadebeb945a49d85ec6889b66487",
			"authentication": {},
			"body": {
				"mimeType": "application/json",
				"text": "{\n\t\"convID\": \"{{ convID  }}\",\n\t\"username\": \"{{ username  }}\",\n\t\"MessageContent\": [\n\t\t{\n\t\t\t\"DataType\": \"text\",\n\t\t\t\"content\": \"This is a test using a new way to test\",\n\t\t\t\"file\": null\n\t\t}\n\t]\n}"
			},
			"created": 1517090710566,
			"description": "set the conversationName of a given conversation\n\n# TODO\nReplace this method by a new fuction to place it in conversation modifier\n",
			"headers": [
				{
					"id": "pair_7c9e7ef08e2348cd8fb55fffc62661cf",
					"name": "x-token",
					"value": "{{ token  }}"
				},
				{
					"id": "pair_5b53be55d67744978d748631c4acd035",
					"name": "x-username",
					"value": "{{ username  }}"
				},
				{
					"id": "pair_3c7413f6a78b4ef28dc71d0bfc2443ec",
					"name": "Content-Type",
					"value": "application/json"
				}
			],
			"metaSortKey": -1517067681573.375,
			"method": "GET",
			"modified": 1517091278701,
			"name": "sendMessage",
			"parameters": [],
			"parentId": "wrk_d08770af896540f99ffbe9b82cb95cf9",
			"settingDisableRenderRequestBody": false,
			"settingEncodeUrl": true,
			"settingSendCookies": true,
			"settingStoreCookies": true,
			"url": "{{ baseURL  }}/Conversation/sendConversationMessage",
			"_type": "request"
		},
		{
			"_id": "req_df7a777f456a452db6c271e4d5256e7d",
			"authentication": {},
			"body": {
				"mimeType": "application/json",
				"text": "{\n\t\"convID\":{{ convID  }}\n}"
			},
			"created": 1517090808730,
			"description": "set the conversationName of a given conversation\n\n# TODO\nReplace this method by a new fuction to place it in conversation modifier\n",
			"headers": [
				{
					"id": "pair_7c9e7ef08e2348cd8fb55fffc62661cf",
					"name": "x-token",
					"value": "{{ token  }}"
				},
				{
					"id": "pair_5b53be55d67744978d748631c4acd035",
					"name": "x-username",
					"value": "{{ username  }}"
				},
				{
					"id": "pair_3c7413f6a78b4ef28dc71d0bfc2443ec",
					"name": "Content-Type",
					"value": "application/json"
				}
			],
			"metaSortKey": -1517069861156.4375,
			"method": "GET",
			"modified": 1517090808730,
			"name": "getConversation (Copy)",
			"parameters": [],
			"parentId": "wrk_d08770af896540f99ffbe9b82cb95cf9",
			"settingDisableRenderRequestBody": false,
			"settingEncodeUrl": true,
			"settingSendCookies": true,
			"settingStoreCookies": true,
			"url": "{{ baseURL  }}/Conversation/getConversation",
			"_type": "request"
		},
		{
			"_id": "env_b3076ffad02f4dc5b2731ecd431bf889",
			"color": "#7d69cb",
			"created": 1517089537532,
			"data": {
				"convID": "273d124f-49ac-4b7f-ab04-1bb175baca97",
				"imageName": "file13.1.Quantum_Leap_Supercomputer_Graphic_Online_Final_V11.jpg",
				"token": "test",
				"username": "henri2h"
			},
			"isPrivate": false,
			"modified": 1517091881237,
			"name": "UserLogin",
			"parentId": "env_1605606b7cf5464b96bf80ff6b8030d1",
			"_type": "environment"
		}
	]
}